{
  "type": "service_account",
  "project_id": "inbound-mote-162215",
  "private_key_id": "19cc74119c2611a51bd38c1b752a6e464659498e",
  "private_key": "-----BEGIN PRIVATE KEY-----\nMIIEvQIBADANBgkqhkiG9w0BAQEFAASCBKcwggSjAgEAAoIBAQDcjFLSFqXwj1pB\n2BvOCyiTL5cykgLi7aAeei5hz3DrkPltfU3gevqe1hiTe+0IRdPIl9TdFJkGQoQ9\nLyKmDQ67eEjYWht+8xwA2RoBe7s7jCVfRDgO0l+FrrftGM41mf2G4OZyzzWaBUCs\nmHrgdctFBfBsR/R9L+aB64JJHBy+UqsduGNWgM9gl5LTxx+KMY4f8uA3/L2wIRLr\npzH1ZjG2pOL79J4Lrqw9i/dckhS5SX0i5YHbdKR94WIppB5XqQll3p+ryZSRypnr\npq5Nrc4QZC5kzmQ2Ycj55fnQio+H1mAlPNAT7mW89e5YZB6g2KccrMFmBbdredqx\nBdoyka5tAgMBAAECggEABUiPS10jiInGncExmVQHGs+PDbUVwJ30sgY3SjyP9fS5\nJPhVf0Uy788tM4tKeGJD2pBYlxtBNzcst9KDP/scGT2ecSBnfDkSuKp6xwJRz/Fh\ni9C0jxZXF3rCCToI5pvTyQFmQ+XW4OOzUu8sMmhgAD1OLyniH4WgPgiITHwR7DU/\nYhgD0F4ojRch0uY7c9iiqTMZ45wLR6IH9Yb+Jh7VFXwD79j+IQxM5Q9ou9HAYzdH\nl8rT1xfFH4TiZRSjOctZyqZekpgWiJAveqco1Bb7dJPyn/4ZmV8UsLJ8WWQpBmuC\nG59e9oQ4KqsajVcvOY3bzDU+5xgbjDJ1wZldEKzsuQKBgQD5uHLDvClt8B/3bXUt\nwNa1nZ/0d0QmuhGvvx6+7PlG6OOTOWlP306ld8SIx+gyj2LBK652QpNLT5M9RIpx\njFwJN4u/gopOYveGp+WZx379xY+xl9J0GOHY1leqpzc6+IKPjkD/knC0DS4KgiX7\neZOhksPgDOPWLM8XLftMEnRTwwKBgQDiGBS4prz6gnSF3vkvFVNDLOuw77FFKLhh\nnYoh+ZcdoD71xk5TYnCq6ZoiuMiBJl5JUxxdI4rkjDmc6SvjL1LwM4PrawO8yE6q\ncfVX04C+GgKZgi+H2ECpaIAdnK/hBUs/78WVf1dtYkjVFts7fdbmjAW5Lj8gIp60\ngD/t/y3CDwKBgQCTTSvVLa66fMQ+bUCLpo6APuRVjeyTc3pvUqtOL/ayzzk+ZMUs\nKir4C/fQPytGd7HnBF86vvanm97cawvHAuZfQXabluMCbfpYYb1bwoO0Kc8jEM1B\nUlQWVgkMTuqTTHenOmA44Sa97nBUHoVNG1/sFOiZxsC2W2Qk5iivrMsVhQKBgELu\nUAwNyDn8rpQG2wuWK4ziWm+JtZe8o0C6i27dXV/21UyaxQsoRCREfU20GB8rhZP9\nV5M292ILJO8Pk99wXgQfq/jgOD4FqkwI6lFymlUsjAJ3qKx1V0cPWYXqoaJil9E4\noOxNw0rtYpQ6bPIioaCkaPlV+HgB56uVn9dLyHb/AoGAFN+pCl3IZzu1M5RTnkM/\nT4z3ew/bOTcPQnXLNvK/RX3n4qJVI3HZwocQDxWx62gOYTPY1lPr0nEjtMc1y3DD\ncLHK7RAysKmO9M1ucOZOzSzL09MfSlh6udLJcxzRwIppNw4UNb+u7AAYeFa/Fy/E\nK5XUzc5rXAy/ndSyKNy6xE0=\n-----END PRIVATE KEY-----\n",
  "client_email": "853909895958-compute@developer.gserviceaccount.com",
  "client_id": "101609279420414940647",
  "auth_uri": "https://accounts.google.com/o/oauth2/auth",
  "token_uri": "https://accounts.google.com/o/oauth2/token",
  "auth_provider_x509_cert_url": "https://www.googleapis.com/oauth2/v1/certs",
  "client_x509_cert_url": "https://www.googleapis.com/robot/v1/metadata/x509/853909895958-compute%40developer.gserviceaccount.com"
}
